[
  {
    "title": "Mais notícias",
    "image": "img/positiva.jpg",
    "description": "",
    "date": " 14 fev 2016",
    "auth": "Luciana",
    "url": null,
    "href": "http://app.klipbox.com.br/c/bk40"
  },
  {
    "title": "Clipping de Notícias",
    "image": "img/positiva.jpg",
    "description": "",
    "date": " 14 fev 2016",
    "auth": "Luciana",
    "url": null,
    "href": "http://app.klipbox.com.br/c/i_ki"
  },
  {
    "title": "Empresários estão preocupados com as mudanças no ICMS",
    "image": "img/posts/icms.jpg",
    "description": "Empresários e contadores se reuniram hoje na sede da Câmara de Dirigentes Lojistas de Natal (CDL Natal) com os auditores fiscais do Rio Grande do Norte para tratar das mudanças nas regras do ICMS, e as consequências dessas mudanças para os comerciantes...",
    "date": " 24 fev 2016",
    "auth": "Luciana",
    "url": "posts/post01.md"
  },
  {
    "title": "Redes sociais interferem na decisão de compra das mulheres",
    "image": "img/posts/redes-socias.jpeg",
    "img": "img/posts/redes-socias-mini.jpg",
    "description": "Que as redes sociais e a mídia são utilizadas para diversos fins de consumo já é um fato amplamente conhecido. Porém, mostrar como especificamente as mulheres se comportam e respondem à influências de compra e avaliar a percepção da sua imagem utilizada pelos meios de comunicação é o objetivo da série de pesquisas “O Perfil de Consumo das Mulheres Brasileiras” do Serviço de Proteção ao Crédito (SPC Brasil) e da Confederação Nacional de Dirigentes Lojistas (CNDL).",
    "date": " 25 fev 2016",
    "auth": "Luciana",
    "url": "posts/post02.md"
  },
  {
    "title": "Plano de exportação será apresentado a empresários de Natal ",
    "image": "img/posts/Sebrae.png",
    "img": "img/posts/Sebrae.png",
    "description": "O Sebrae no Rio Grande do Norte, Sistema Fiern, Ministério do Desenvolvimento, Indústria e Comércio Exterior (MDIC) e parceiros apresentam, na próxima terça-feira (1), o Plano Nacional...",
    "date": " 1 Mar 2016",
    "auth": "Luciana",
    "url": "posts/post03.md"
  },
  {
    "title": "RN perde quase 3 mil postos de trabalho em janeiro ",
    "image": "img/posts/comercio.jpg",
    "img": "img/posts/comercio-mini.jpg",
    "description": "Mês pode ser considerado um dos piores da história em termos de desemprego no comércio, aponta CDL-Natal.",
    "date": " 1 Mar 2016",
    "auth": "Luciana",
    "url": "posts/post04.md"
  },
  {
    "title": "CDL Natal e Prefeitura do Natal entregam premiação do concurso de decoração natalina",
    "image": "img/posts/natalina.jpg",
    "img": "img/posts/natalina.jpg",
    "description": "A Câmara de Dirigentes Lojistas de Natal e a Prefeitura Municipal do Natal entregam nesta sexta-feira, 04 de março, no Versailles Tirol...",
    "date": " 6 Mar 2016",
    "auth": "Luciana",
    "url": "posts/post05.md"
  },
  {
    "title": "Funcionamento do comércio durante a páscoa",
    "image": "img/positiva.jpg",
    "img": "img/positiva.jpg",
    "description": "A Semana Santa de 2016 é comemorada de 20 a 27 de Março, mas, somente o dia 25 é considerado feriado. A Câmara de Dirigentes Lojistas de Natal...",
    "date": " 22 Mar 2016",
    "auth": "Luciana",
    "url": "posts/post06.md"
  },
  {
    "title": "Comandante Geral do Corpo de Bombeiros afirma que processo de Análise de projetos estão mais céleres",
    "image": "img/posts/quinta.jpg",
    "img": "img/posts/quinta.jpg",
    "description": "A diretoria da Câmara de Dirigentes Lojistas de Natal (CDL Natal) recebeu na noite dessa quinta-feira 07/04, na sede...",
    "date": " 9 Abr 2016",
    "auth": "Luciana",
    "url": "posts/post07.md"
  },
  {
    "title": "Por que ter  o Certificado Digital ?",
    "image": "img/posts/foco.jpg",
    "img": "img/posts/foco.jpg",
    "description": "Porque o certificado digital é um documento eletrônico que garante proteção às transações online e a troca virtual de documentos...",
    "date": " 19 Abr 2016",
    "auth": "Luciana",
    "url": "posts/post08.md"
  },
  {
    "title": "Comércio funcionará em horário diferenciado durante o feriado de 21 de abril",
    "image": "img/positiva.jpg",
    "img": "img/positiva.jpg",
    "description": "Esta quinta-feira (21) é dia de Tiradentes e feriado em todo o Brasil. Em Natal, bancos, repartições públicas, escolas...",
    "date": " 20 Abr 2016",
    "auth": "Luciana",
    "url": "posts/post09.md"
  },
  {
    "title": "Comércio funciona em horários diferiancos no Dia do Trabalho",
    "image": "img/positiva.jpg",
    "img": "img/positiva.jpg",
    "description": "O próximo domingo 1º de maio é comemorado o Dia do Trabalhado, e em função disso o comércio da capital potiguar...",
    "date": " 29 Abr 2016",
    "auth": "Luciana",
    "url": "posts/post10.md"
  },
  {
    "title": "Crise no comércio leva CDL Natal a realizar evento motivacional",
    "image": "img/positiva.jpg",
    "img": "img/positiva.jpg",
    "description": "O comércio vem enfrentando nos últimos meses sucessivas quedas nas vendas...",
    "date": " 12 Mai 2016",
    "auth": "Luciana",
    "url": "posts/post11.md"
  },
  {
    "title": "CDL Jovem de Natal comemora conquista para o movimento lojista local",
    "image": "img/ago_cdl_jovem.jpg",
    "img": "img/ago_cdl_jovem.jpg",
    "description": "Natal será sede da Assembleia Geral Ordinária da Confederação Nacional dos Jovens empresários (Conaje) em 2017...",
    "date": " 7 Jun 2016",
    "auth": "Luciana",
    "url": "posts/post12.md"
  },
  {
    "title": "FCDL RN e CDL Natal  realizam evento sobre Nota Fiscal eletrônica",
    "image": "img/nota_fiscal.jpg",
    "img": "img/nota_fiscal.jpg",
    "description": "Empresários e contadores participaram em Natal de palestra  sobre Nota Fiscal  Eletrônica....",
    "date": " 8 Jun 2016",
    "auth": "Luciana",
    "url": "posts/post13.md"
  },
  {
    "title": "Técnica de vendas será abordada em workshop promovido pela CDL Natal",
    "image": "img/positiva.jpg",
    "img": "img/positiva.jpg",
    "description": "Com a proposta de contribuir para melhorar as vendas do comércio, a Câmara de Dirigentes Lojista de Natal (CDL Natal) realiza na próxima terça-feira...",
    "date": " 17 Jun 2016",
    "auth": "Luciana",
    "url": "posts/post14.md"
  },
  {
    "title": "Banco do Nordeste e CDL Natal renovam convênio de cooperação das linhas de crédito",
    "image": "img/026.JPG",
    "img": "img/026.JPG",
    "description": "A Câmara de Dirigentes Lojistas de Natal – CDL Natal e o Banco do Nordeste do Brasil – BNB renovaram nesse mês de julho...",
    "date": " 20 Jul 2016",
    "auth": "Luciana",
    "url": "posts/post15.md"
  },
  {
    "title": "CDL Natal realiza mais uma edição da Terça do conhecimento e apresenta “Varejo Show”",
    "image": "img/462.JPG",
    "img": "img/462.JPG",
    "description": "Nos dias 12 e 13 de julho a CDL Natal realizou mais uma edição da Terça do Conhecimento, e contou com a parceria do Sebrae...",
    "date": " 22 Jul 2016",
    "auth": "Luciana",
    "url": "posts/post16.md"
  },
  {
    "title": "Workshops da liquida natal começam nesta quinta-feira",
    "image": "img/Fred.JPG",
    "img": "img/Fred.JPG",
    "description": "A Liquida Natal completa 15 anos em  2016  e nesta edição busca criar ainda mais oportunidades aos lojistas para vender mais, e assim...",
    "date": " 3 Ago 2016",
    "auth": "Luciana",
    "url": "posts/post17.md"
  },
  {
    "title": "CDL Natal realiza treinamentos da Liquida Natal",
    "image": "img/treinamento.jpg",
    "img": "img/treinamento.jpg",
    "description": "A CDL Natal está comemorando o sucesso dos workshops da Liquida Natal 2016...",
    "date": " 22 Ago 2016",
    "auth": "Luciana",
    "url": "posts/post18.md"
  },
  {
    "title": "Liquida Natal completa 15 anos e sorteia 15 super prêmios",
    "image": "img/positiva.jpg",
    "img": "img/positiva.jpg",
    "description": "A Câmara de Dirigentes Lojistas de Natal vai sortear 15 super prêmios entre os consumidores participantes...",
    "date": " 25 Ago 2016",
    "auth": "Luciana",
    "url": "posts/post19.md"
  },
  {
    "title": "Diretor do Uber conversará com empresários na CDL Natal",
    "image": "img/positiva.jpg",
    "img": "img/positiva.jpg",
    "description": "A diretoria da CDL Natal e entidades representativas do comércio recebem nesta quarta-feira...",
    "date": " 29 Ago 2016",
    "auth": "Luciana",
    "url": "posts/post20.md"
  },
  {
    "title": "Comércio funciona em horário diferenciado no 07 de setembro",
    "image": "img/positiva.jpg",
    "img": "img/positiva.jpg",
    "description": "A próxima quarta-feira 07/09 é feriado nacional da Independência do Brasil e em função da data, o comércio terá o horário...",
    "date": " 06 Set 2016",
    "auth": "Luciana",
    "url": "posts/post21.md"
  },
  {
    "title": "Sorteio da Liquida Natal acontece nesse sábado",
    "image": "img/positiva.jpg",
    "img": "img/positiva.jpg",
    "description": "É amanhã! A CDL Natal sorteia nesse sábado 10/09 às 12h30, ao vivo pela TV Ponta Negra, os 15 prêmios da Liquida Natal 2016...",
    "date": " 09 Set 2016",
    "auth": "Luciana",
    "url": "posts/post22.md"
  }
]
